,gs,Exact Energies,Estimate Energies,Exact Correlations,Estimate Corr
0,0.01,(-3.0000753754569187+0j),-3.0000750000007335,(0.999974749547061+0j),(0.9999910000000001+0j)
1,0.016,(-3.0001935389472494+0j),-3.000191999998851,(0.9999349730949636+0j),(0.999984+0j)
2,0.025,(-3.0004746265138422+0j),-3.000468762207205,(0.9998398270108622+0j),(0.9999639999999999+0j)
3,0.04,(-3.0012241075410024+0j),-3.001200080003759,(0.9995838967658696+0j),(0.9998999999999998+0j)
4,0.063,(-3.0030711327165327+0j),-3.0029772423425865,(0.998944666627685+0j),(0.9997440000000002+0j)
5,0.1,(-3.0078784028338874+0j),-3.007509368441774,(0.9972470632572149+0j),(0.9979983333333333+0j)
6,0.158,(-3.020218032347445+0j),-3.0187813330095015,(0.9927620246407767+0j),(0.9940186666666666+0j)
7,0.251,(-3.0532219619125716+0j),-3.0476213526031715,(0.980312465006219+0j),(0.9841366666666668+0j)
8,0.398,(-3.142022935629002+0j),-3.1211306098425564,(0.9457106009607303+0j),(0.9588536666666667+0j)
9,0.631,(-3.382754549016498+0j),-3.3130577470780063,(0.854334787092407+0j),(0.8862296666666666+0j)
10,1.0,(-4.000000000000001+0j),-3.8359759167920964,(0.6666666666666666+0j),(0.670266+0j)
11,1.585,(-5.361490590655762+0j),-5.19881629752063,(0.4329795081115891+0j),(0.34631400000000007+0j)
12,2.512,(-7.892933233912604+0j),-7.782132547497599,(0.25541994933307344+0j),(0.18280866666666662+0j)
13,3.981,(-12.155220793925983+0j),-12.086213875024994,(0.1492483010208624+0j),(0.10189266666666671+0j)
14,6.31,(-19.058378611536163+0j),-19.0159720218153,(0.08876057752242462+0j),(0.06015400000000004+0j)
15,10.0,(-30.078784028338912+0j),-30.05261239626891,(0.053790710207488934+0j),(0.03580600000000002+0j)
16,15.849,(-47.59582429129874+0j),-47.57957095043797,(0.033052999364681146+0j),(0.022328666666666698+0j)
17,25.119,(-75.38745485703816+0j),-75.37730844560258,(0.020503009926815363+0j),(0.014686000000000013+0j)
18,39.811,(-119.45207631511656+0j),-119.44571882570987,(0.012796859082561904+0j),(0.008039333333333324+0j)
19,63.096,(-189.29998102296918+0j),-189.29598764142597,(0.008018863826214084+0j),(0.0042500000000000124+0j)
20,100.0,(-300.00753754569195+0j),-300.00502510809264,(0.005037560524562963+0j),(0.0023593333333333244+0j)
