,gs,Exact Energies,Estimate Energies,Exact Correlations,Estimate Corr
0,1.0,(-11.517540966287315+1.9281243862871327e-30j),-11.381032264720197,(0.6398633870159615+0j),(0.7033457777777781+0j)
1,1.122,(-12.27344577430286+1.679789960854507e-30j),-12.046947752724973,(0.5417875501264192-7.784991468471206e-47j),(0.6041310000000001+0j)
2,1.259,(-13.22411609954904+2.7386281569495955e-30j),-12.942988582974214,(0.4569025719359347+0j),(0.4465368888888888+0j)
3,1.413,(-14.376308575148975-7.642091580455997e-31j),-14.129817185833435,(0.3900897702120253+0j),(0.31151899999999993+0j)
4,1.585,(-15.728060959611451+1.0255191793788909e-29j),-15.526695155643269,(0.33788372791686+0j),(0.27856088888888886+0j)
5,1.778,(-17.29643260103752-5.521985160759798e-30j),-17.128280751256757,(0.2955300773152784+0j),(0.24901133333333328+0j)
6,1.995,(-19.102460990668188+6.209257439352239e-32j),-18.959714435144566,(0.26002670558983726+0j),(0.22263711111111106-4.818676322157797e-20j)
7,2.239,(-21.16940353734209-9.621697203790894e-30j),-21.046675906023825,(0.2296248854679264-1.459685900338351e-47j),(0.19836855555555546+0j)
8,2.512,(-23.513062572718518+4.785121145119837e-31j),-23.40322319451336,(0.20335649953651158-4.8656196677945034e-48j),(0.17616622222222217+7.709882115452476e-19j)
9,2.818,(-26.166977530335014+1.7653512870588862e-30j),-26.070625514263792,(0.1804110189755657+1.2164049169486259e-48j),(0.15704388888888884+0j)
10,3.162,(-29.174157668313693-4.5852503081348204e-30j),-29.089909432542346,(0.16020157933587736+0j),(0.1396432222222222+0j)
11,3.548,(-32.569380748731255-4.540829019483509e-30j),-32.49408538945234,(0.1423748141738829+9.731239335589007e-48j),(0.12566188888888882+0j)
12,3.981,(-36.396452585482606-1.0541967300601187e-30j),-36.32475403021073,(0.12661444570223163-1.9462478671178014e-47j),(0.11152377777777775-9.637352644315594e-20j)
13,4.467,(-40.70829279373186-2.259065216200209e-29j),-40.592191707526375,(0.11264786801791274+0j),(0.08448022222222219+1.927470528863119e-19j)
14,5.012,(-45.55805130155915+2.9212756257018495e-30j),-45.439538848761075,(0.10026504285762759+0j),(0.07186688888888883+3.854941057726238e-19j)
15,5.623,(-51.007939766045155-1.4680447048138185e-29j),-50.93704201134605,(0.08927647854843301-2.4328098338972517e-48j),(0.07378311111111108+0j)
16,6.31,(-57.14714021345115-9.460127808708072e-30j),-56.992496728474165,(0.07949052041709447+2.4328098338972517e-48j),(0.044737222222222164-3.854941057726238e-19j)
17,7.079,(-64.029239939106-4.2078016818244597e-29j),-63.92019185763547,(0.07080899133491335+0j),(0.045699666666666645+7.709882115452476e-19j)
18,7.943,(-71.7705500314121-4.757120585632579e-30j),-71.6553485425718,(0.06307398507593223-9.123036877114694e-49j),(0.03546966666666664+1.5419764230904951e-18j)
19,8.913,(-80.46963949409904-7.356888970560025e-31j),-80.38462624029553,(0.05618652796302117-2.4328098338972517e-48j),(0.038168666666666635-7.709882115452476e-19j)
20,10.0,(-90.22514097989776+0j),-90.1388439402705,(0.05006273755681003+0j),(0.02929366666666668+3.854941057726238e-19j)
