,gs,Exact Energies,Estimate Energies,Exact Correlations,Estimate Corr
0,0.631,(-5.533729542213835+0j),-5.507751751191254,(0.8762773758859539+0j),(0.8935952000000003+0j)
1,0.661,(-5.5902120110936115+0j),-5.5584396114586845,(0.861613218999957+0j),(0.8829785999999997+0j)
2,0.692,(-5.652192867694909+1.1238162049707002e-32j),-5.613543760537178,(0.8454128667721005-7.006492321624086e-47j),(0.8701013999999999+0j)
3,0.724,(-5.72010038782274+1.4904832542763125e-32j),-5.673177050441506,(0.8276206551536263+0j),(0.8570862000000002-5.551115123125783e-18j)
4,0.759,(-5.799006937544002+0j),-5.742136859445354,(0.8070095729138167+0j),(0.8413860000000002+0j)
5,0.794,(-5.882791198806039+2.2041125022471986e-76j),-5.814621237885721,(0.7853357638116711-4.909093465297727e-92j),(0.8255572000000001+0j)
6,0.832,(-5.979278998571736+0j),-5.8989990251733015,(0.760811905924107+0j),(0.8064128+0j)
7,0.871,(-6.084226131883423+0j),-5.989783420803928,(0.7348452775333781+0j),(0.7856894-1.1102230246251566e-17j)
8,0.912,(-6.200887425367334+0j),-6.09012243017565,(0.7070232433299655+0j),(0.7614190000000001+1.1102230246251566e-17j)
9,0.955,(-6.3299832684021045+0j),-6.198426263470407,(0.67767318719542+0j),(0.7335041999999998-2.7755575615628915e-18j)
10,1.0,(-6.472135954999599+2.245673160700876e-63j),-6.323508411484608,(0.6472135954999588+0j),(0.7075454000000002+0j)
11,1.047,(-6.627846730717725+0j),-6.4572122039836755,(0.6161238774107591+0j),(0.6725374000000001+0j)
12,1.096,(-6.797482462217747+0j),-6.610761901557388,(0.5849046157897096+0j),(0.6340953999999999+0j)
13,1.148,(-6.984946171606956+0j),-6.781149090056002,(0.553448819485844+0j),(0.5875208-4.4408920985006264e-17j)
14,1.202,(-7.18692603843335+0j),-6.969083356371427,(0.5228472660990876+0j),(0.5322214+0j)
15,1.259,(-7.407306438245748+0j),-7.180033163344193,(0.4929476061609741+0j),(0.46936540000000004+0j)
16,1.318,(-7.642250033219205+0j),-7.438656198636166,(0.46459247867619696+0j),(0.35135739999999993-2.7755575615628915e-18j)
17,1.38,(-7.895662513542071+0j),-7.7318961003613484,(0.4375198536305021+0j),(0.32268480000000005+0j)
18,1.445,(-8.167542264731503+0j),-8.050952771509925,(0.4119192231355035+0j),(0.31793760000000004-1.1102230246251566e-17j)
19,1.514,(-8.462119164151355-1.9518449306795447e-31j),-8.337471140147404,(0.387560414069928-8.758115402030107e-48j),(0.2913992+0j)
20,1.585,(-8.770714806669012+0j),-8.578126232777809,(0.36517961761545925+0j),(0.2680118+0j)
