,gs,Exact Energies,Estimate Energies,Exact Correlations,Estimate Corr
0,0.01,(-5.00012500080861+0j),(-2.4441064453124994+0j),(0.9999749995093569+0j),(0.30937500000000007+0j)
1,1.0,(-6.472135954999599+2.245673160700876e-63j),(-3.39111328125+0j),(0.6472135954999588+0j),(0.22285156250000002+0j)
2,100.0,(-500.01250008086106+0j),(-362.54638671875+0j),(0.0050000652365750275+0j),(-0.006445312500000003+0j)
