,gs,Exact Energies,Estimate Energies,Exact Correlations,Estimate Corr
0,0.631,(-3.382754549016498+0j),-3.313057746811906,(0.854334787092407+0j),(0.8862296666666666+0j)
1,0.661,(-3.422727561230738+0j),-3.3450190176314027,(0.8400329424619166+0j),(0.8735160000000002+0j)
2,0.692,(-3.466107099360127+0j),-3.3798882426629233,(0.8248481918864092+0j),(0.8598463333333335+0j)
3,0.724,(-3.513051145160473+0j),-3.4178845396065696,(0.808818156094152+0j),(0.8442856666666667+0j)
4,0.759,(-3.5668506575489087+0j),-3.4618191453474254,(0.7909670044989802+0j),(0.8278623333333335+0j)
5,0.794,(-3.623137501665744+0j),-3.508288081087046,(0.7728847608601432+0j),(0.808502+0j)
6,0.832,(-3.686965228784624+0j),-3.5616719449999814,(0.7531075989549315+0j),(0.7866209999999999+0j)
7,0.871,(-3.755294032257174+0j),-3.619704427445008,(0.7327755932894698+0j),(0.7626963333333334+0j)
8,0.912,(-3.8300656923056593+0j),-3.6843355720311775,(0.7114920878760034+0j),(0.735476+0j)
9,0.955,(-3.9115530915362324+0j),-3.7561984654631817,(0.689401701567421+0j),(0.7053749999999999+0j)
10,1.0,(-4.000000000000001+0j),-3.835975917992997,(0.6666666666666666+0j),(0.670266+0j)
11,1.047,(-4.0956180707979675+0j),-3.9244009302336327,(0.6434610933046487+0j),(0.6314623333333333+0j)
12,1.096,(-4.19858507556769+0j),-4.198585072782576,(0.6199646205377036+0j),(0.6186719999999999-7.401486830834377e-17j)
13,1.148,(-4.311242011426371+0j),-4.132555021184669,(0.595902198490256+0j),(0.5423826666666666+0j)
14,1.202,(-4.431622389553894+0j),-4.2526836625099715,(0.5719387592980607+0j),(0.510497+0j)
15,1.259,(-4.562111807967645+0j),-4.383928345573058,(0.5478257423822553+0j),(0.4789266666666668+0j)
16,1.318,(-4.700539821283159+0j),-4.524019492081224,(0.5241661003683867+0j),(0.45018+0j)
17,1.38,(-4.849331893448097+0j),-4.849331890999036,(0.5007200400089463+0j),(0.5005339999999998+0j)
18,1.445,(-5.0086107348815645+0j),-5.0086107341480846,(0.4776610173165623+0j),(0.47719200000000006+0j)
19,1.514,(-5.180980314887982+0j),-5.180980313813272,(0.4548190444168852+0j),(0.456032-7.401486830834377e-17j)
20,1.585,(-5.361490590655762+0j),-5.361490588099685,(0.4329795081115891+0j),(0.434036+0j)
