,gs,Exact Energies,Estimate Energies,Exact Correlations,Estimate Corr
0,0.01,(-9.00022500140631+3.944304526105059e-31j),-9.000225000001393,(0.9999749995312306+0j),(1.000022777777777+0j)
1,0.016,(-9.000576009216632+7.888609052210118e-31j),-9.000576000003296,(0.9999359969276723+0j),(1.0000800000000005+0j)
2,0.025,(-9.001406304940275+0j),-9.001406256100989,(0.9998437316846832+0j),(1.0001800000000003+0j)
3,0.04,(-9.003600360144166+4.067564042545842e-31j),-9.003600039961041,(0.9995998799198816-1.3695501826753676e-33j),(1.0005000000000006+0j)
4,0.063,(-9.008932467464733-6.929255198662226e-31j),-9.008930495546888,(0.999007010353411+0j),(0.9992809999999994+0j)
5,0.1,(-9.02251409798981-4.448264328921895e-41j),-9.022501562760135,(0.9974952926876316-7.784991468471206e-47j),(0.9971419999999995+0j)
6,0.158,(-9.056257201950972-4.70197740328915e-38j),-9.056178761596286,(0.9937294687964595+0j),(0.9936887777777778+0j)
7,0.251,(-9.142320178203088+1.6825248154182964e-30j),-9.141814711280873,(0.9840579712421748+0j),(0.9836992222222234+0j)
8,0.398,(-9.360132426006187-1.3814989358822835e-30j),-9.358303564229148,(0.9590978236102935+0j),(0.9600117777777772-1.2335811384723961e-17j)
9,0.631,(-9.923325881169948-3.2817451228213693e-31j),-9.910756023706677,(0.8893525294577311+0j),(0.8945443333333332+0j)
10,1.0,(-11.517540966287315+1.9281243862871327e-30j),-11.38103512940526,(0.6398633870159615+0j),(0.7029980000000003+0j)
11,1.585,(-15.728060959611451+1.0255191793788909e-29j),-15.526678767531115,(0.33788372791686+0j),(0.27830077777777773+0j)
12,2.512,(-23.513062572718518+4.785121145119837e-31j),-23.405909261537648,(0.20335649953651158-4.8656196677945034e-48j),(0.17755988888888882+0j)
13,3.981,(-36.396452585482606-1.0541967300601187e-30j),-36.32558598541321,(0.12661444570223163-1.9462478671178014e-47j),(0.11007999999999997-1.5419764230904951e-18j)
14,6.31,(-57.14714021345115-9.460127808708072e-30j),-57.004363311343546,(0.07949052041709447+2.4328098338972517e-48j),(0.04542299999999995-3.854941057726238e-19j)
15,10.0,(-90.22514097989776+0j),-90.14055391394456,(0.05006273755681003+0j),(0.030117666666666654+0j)
16,15.849,(-142.7830001509389-9.37060708960934e-31j),-142.65677778344576,(0.031563454340926125+0j),(0.00253155555555551+0j)
17,25.119,(-226.16058250573647-2.3680444130616361e-29j),-226.08095361079205,(0.019909196771575353+2.4328098338972517e-48j),(0.002531555555555493+0j)
18,39.811,(-358.35551927208866-4.801881742169097e-28j),-358.30527982318387,(0.012560333666779751-6.08202458474313e-48j),(-1.0765758654921834e-16+0j)
19,63.096,(-567.8996605066177+1.1715903993469168e-28j),-567.8679622784981,(0.007924681447905813+0j),(-1.0765758654921834e-16+0j)
20,100.0,(-900.0225001406278+0j),-900.002500015622,(0.005000062502343857+0j),(-1.0765758654921834e-16+0j)
