,gs,Exact Energies,Estimate Energies,Exact Correlations,Estimate Corr
0,0.01,(-5.00012500080861+0j),-5.000124999578574,(0.9999749995093569+0j),(1.0000049999999998+0j)
1,0.018,(-5.0004050087185385+0j),-5.000405001589376,(0.9999189946653179+0j),(1.000025+0j)
2,0.034,(-5.0014451168497915+0j),-5.001445020249544,(0.9997109273965252+0j),(1.0000809999999998+0j)
3,0.063,(-5.0049627528881935+0j),-5.004961495291361,(0.9990067937459879+0j),(0.9982570000000003+0j)
4,0.117,(-5.017131904187524+0j),-5.017114179064444,(0.9965641568367613+0j),(0.9968436000000005+0j)
5,0.215,(-5.058073549152862+0j),-5.057814825754836,(0.9882437961483949+0j),(0.9889526000000002+0j)
6,0.398,(-5.202602682749281+0j),-5.198826527309498,(0.957171668829507+0j),(0.9601736000000001+0j)
7,0.736,(-5.746606248286025+0j),-5.692282965079864,(0.8206834586242183+0j),(0.8546334+0j)
8,1.359,(-7.809137863658641+0j),-7.626227330254106,(0.4463879811722491+0j),(0.3349832000000001+0j)
9,2.512,(-13.06917251820402+0j),-12.963744235248049,(0.20947205279334036+0j),(0.16951320000000003+0j)
10,4.642,(-23.48064921475874+0j),-23.411640835782034,(0.10892236521289789+0j),(0.0783988+0j)
11,8.577,(-43.030913111831566+0j),-42.98473872688679,(0.05844516785278886+0j),(0.040388400000000005-5.204170427930422e-19j)
12,15.849,(-79.3238932998581+0j),-79.29145855402021,(0.031567778840055086+0j),(0.018386400000000015-2.7755575615628915e-18j)
13,29.286,(-146.4726859932348-9.047805474422613e-63j),-146.4542335243604,(0.017075865031854754+0j),(0.00954039999999999-6.938893903907228e-18j)
14,54.117,(-270.6080986271129+0j),-270.6013743547141,(0.009239667176420696+0j),(0.006478600000000005+1.908195823574488e-18j)
15,100.0,(-500.01250008086106+0j),-500.00502886546934,(0.0050000652365750275+0j),(0.001579600000000002-1.3877787807814458e-18j)
