,gs,Exact Energies,Estimate Energies,Exact Correlations,Estimate Corr
0,0.01,(-5.00012500080861+0j),-5.000124999999979,(0.9999749995093569+0j),(1.000006+0j)
1,100.0,(-500.01250008086106+0j),-500.0025000156246,(0.0050000652365750275+0j),(0.0011296000000000019+0j)
