,gs,Exact Energies,Estimate Energies,Exact Correlations,Estimate Corr
0,0.01,(-8.000200001250036+1.97215226305258e-31j),-8.000199999999957,(0.9999749995312335+0j),(1.0000160000000005+0j)
1,0.016,(-8.00051200819253+1.1832914501525261e-30j),-8.000511999999445,(0.9999359969276727+0j),(1.000064+0j)
2,0.025,(-8.001250048835796-3.3125995043460457e-32j),-8.001250006101372,(0.9998437316846558+0j),(1.0001440000000006+0j)
3,0.04,(-8.00320032012946+1.6800729499240528e-31j),-8.003200039961952,(0.9995998799187293+0j),(1.0004000000000008+0j)
4,0.063,(-8.00793997112892+9.857699613952124e-32j),-8.007938245555868,(0.9990070103107473+0j),(0.9990250000000002+0j)
5,0.1,(-8.020012533458637+2.711704887489185e-31j),-8.020001563136615,(0.9974952910382207+0j),(0.9985080000000001+0j)
6,0.158,(-8.05000647164086+7.085756735663329e-32j),-8.04993776540245,(0.9937294091378921+0j),(0.9941385+0j)
7,0.251,(-8.12650936574298+9.873548407401781e-32j),-8.126064491093626,(0.9840558496180416+0j),(0.9837204999999999+0j)
8,0.398,(-8.320199865060154+3.601753362860153e-32j),-8.318492304551231,(0.9590325945147173+0j),(0.9602164999999997+0j)
9,0.631,(-8.822760555711856+4.866122346825748e-31j),-8.811459785219474,(0.8880036877925929+0j),(0.895278+0j)
10,1.0,(-10.251661790965976-4.690476620839203e-31j),-10.114674471226483,(0.6407288619353766+0j),(0.70405+0j)
11,1.585,(-13.983707795437578-1.7274912223008223e-30j),-13.787223286411313,(0.3404212012954122+0j),(0.27591550000000004+0j)
12,2.512,(-20.90070677328023+2.3347401995446443e-30j),-20.79539660640109,(0.2035464573212984+0j),(0.175126+0j)
13,3.981,(-32.35241247256559-5.0692832049566106e-30j),-32.28739467791013,(0.12662421329358026+0j),(0.10999799999999998+0j)
14,6.31,(-50.79745841919044-4.9924093347685325e-30j),-50.696915131001845,(0.07949096230309438+0j),(0.05526200000000001+0j)
15,10.0,(-80.20012533458647-2.7753620270144022e-30j),-80.13814578610638,(0.05006275644111617+0j),(0.03298200000000002+0j)
16,15.849,(-126.91822235717859-1.185884550355734e-30j),-126.80777779172489,(0.0315634551238711+0j),(0.002000000000000008+0j)
17,25.119,(-201.03162889401972+3.664593772279964e-30j),-200.9619536082183,(0.019909196803507764+0j),(0.002000000000000005+0j)
18,39.811,(-318.53823935297004+6.2062223154213165e-30j),-318.49427991531115,(0.012560333668069683+0j),(0.002000000000000005+0j)
19,63.096,(-504.7996982281039+4.610693402217056e-30j),-504.7719622775293,(0.007924681447957849+0j),(-1.6966462956791161e-18+0j)
20,100.0,(-800.0200001250017-2.013371951533988e-29j),-800.0025000151434,(0.005000062502346161+0j),(3.6409816134286285e-18+0j)
