,gs,Exact Energies,Estimate Energies,Exact Correlations,Estimate Corr
0,0.01,(-1.0200746254803577+0j),-0.8027535263787867,(-0.33330858284914333+0j),(-0.2674743333333333+0j)
1,0.016,(-1.0321904671930184+0j),-0.9944121028228603,(-0.3332703541005948+0j),(-0.332856+0j)
2,0.025,(-1.0504629100529086+0j),-0.9303786585976169,(-0.3331809697919385+0j),(-0.31026099999999995+0j)
3,0.04,(-1.081176131547692+0j),-0.9808129497354052,(-0.3329491980858441+0j),(-0.33298933333333336+0j)
4,0.063,(-1.1288838302286015+0j),-1.0372102031398849,(-0.3324027130062832+0j),(-0.33171033333333333+0j)
5,0.1,(-1.2071307505705466+0j),-1.1581830304981175,(-0.3310772636934159+0j),(-0.3303176666666666+0j)
6,0.158,(-1.3332829700983742+0j),-1.1839571383838536,(-0.32803656035070794+0j),(-0.33044066666666666+0j)
7,0.251,(-1.543597653318174+0j),-1.4033468340921138,(-0.3212371118970749+0j),(-0.32091733333333333+0j)
8,0.398,(-1.8931184340628004+0j),-1.5192779559646024,(-0.307384415708967+0j),(-0.30840766666666664+0j)
9,0.631,(-2.4799724463392074+0j),-2.2540054770966345,(-0.2823272365868167+0j),(-0.27350433333333335+0j)
10,1.0,(-3.464101615137756+0j),-2.5757600125777453,(-0.2440169358562923+0j),(-0.2418466666666666+0j)
11,1.585,(-5.100406958403635+0j),-4.647559052304098,(-0.1959655808103769+0j),(-0.18902766666666665+1.1564823173178713e-18j)
12,2.512,(-7.780059986949706+0j),-7.535438095742142,(-0.1465599679852161+0j),(-0.05051133333333335+0j)
13,3.981,(-12.108838955634573+0j),-11.998432801433937,(-0.10349879667176193+0j),(-0.08128599999999998+4.625929269271485e-18j)
14,6.31,(-19.039690455359857+0j),-18.967113733682297,(-0.07017175791490106+0j),(-0.029295666666666626+4.625929269271485e-18j)
15,10.0,(-30.07130750570549+0j),-29.923440543658447,(-0.0463298649676659+0j),(-0.030447999999999975+0j)
16,15.849,(-47.59284223025759+0j),-46.67238624016001,(-0.030073418069149444+0j),(0.012693333333333315-9.25185853854297e-18j)
17,25.119,(-75.38626678885865+0j),-51.22857782742413,(-0.019315334437314098+0j),(-0.11614666666666663+0j)
18,39.811,(-119.45160319714898+0j),-119.41561221672092,(-0.01232380333086222+0j),(-0.006840666666666659+0j)
19,63.096,(-189.29979264786107+0j),-189.27850545630406,(-0.007830498577484291+0j),(-0.006331333333333332+0j)
20,100.0,(-300.00746254803505+0j),-299.96384530310496,(-0.004962564430908617+0j),(-0.002348000000000003+0j)
