,gs,Exact Energies,Estimate Energies,Exact Correlations,Estimate Corr
0,1.0,(-4.000000000000001+0j),-3.835975917992997,(0.6666666666666666+0j),(0.670266+0j)
1,1.259,(-4.562111807967645+0j),-4.383928345573058,(0.5478257423822553+0j),(0.4789266666666668+0j)
2,1.585,(-5.361490590655762+0j),-5.361490588099685,(0.4329795081115891+0j),(0.434036+0j)
3,1.995,(-6.450444978580903+0j),-6.450444978089275,(0.33429799442734476+0j),(0.33484999999999987+0j)
4,2.512,(-7.892933233912604+0j),-7.782132547173434,(0.25541994933307344+0j),(0.1828106666666666+0j)
5,3.162,(-9.760658410726636+0j),-9.76065837801575,(0.19496685160934374+0j),(0.193712+0j)
6,3.981,(-12.155220793925983+0j),-12.086213960859999,(0.1492483010208624+0j),(0.10189266666666671+0j)
7,5.012,(-15.20072004144212+0j),-15.146626903816466,(0.11480452943641342+0j),(0.07848000000000005+0j)
8,6.31,(-19.058378611536163+0j),-19.05837861041507,(0.08876057752242462+0j),(0.08758999999999996+9.25185853854297e-18j)
9,7.943,(-23.929427059175914+0j),-23.929427057233514,(0.06896077913108672+0j),(0.06844799999999995-1.850371707708594e-17j)
10,10.0,(-30.078784028338912+0j),-30.078784017623022,(0.053790710207488934+0j),(0.05418399999999997-4.625929269271485e-18j)
11,12.589,(-37.82896047851564+0j),-37.808350610148466,(0.04210623584733819+0j),(0.028088666666666706+5.782411586589357e-19j)
12,15.849,(-47.59582429129874+0j),-47.57957093484435,(0.033052999364681146+0j),(0.022328666666666698+0j)
13,19.953,(-59.897535380461356+0j),-59.884700789483524,(0.026007374768388287+0j),(0.01850200000000002+0j)
14,25.119,(-75.38745485703816+0j),-75.3773083229166,(0.020503009926815363+0j),(0.014686000000000013+0j)
15,31.623,(-94.89309327116817+0j),-94.88506469376892,(0.016188045294870168+0j),(0.010880666666666686-5.782411586589357e-19j)
16,39.811,(-119.45207631511656+0j),-119.4457188203483,(0.012796859082561904+0j),(0.008039333333333324-5.782411586589357e-19j)
17,50.119,(-150.37211402671448+0j),-150.36707648839283,(0.010126009836167987+0j),(0.0076300000000000395+0j)
18,63.096,(-189.29998102296918+0j),-189.29598755224956,(0.008018863826214084+0j),(0.005660000000000035+2.3129646346357427e-18j)
19,79.433,(-238.30850144338447+0j),-238.30533444432763,(0.006354166027174553+0j),(0.005192666666666697+0j)
20,100.0,(-300.00753754569195+0j),-300.0050250267611,(0.005037560524562963+0j),(0.003881999999999986+4.625929269271485e-18j)
