,gs,Exact Energies,Estimate Energies,Exact Correlations,Estimate Corr
0,1.0,(-6.472135954999599+2.245673160700876e-63j),-6.3219748571364605,(0.6472135954999588+0j),(0.7056002000000002+1.3877787807814458e-18j)
1,1.122,(-6.890302841056476+0j),-6.694666264290861,(0.5689442571386184+0j),(0.6100838+0j)
2,1.259,(-7.407306438245748+0j),-7.182274319953613,(0.4929476061609741+0j),(0.4679689999999999+4.4408920985006264e-17j)
3,1.413,(-8.032957881749683+0j),-7.883790881838737,(0.4241827667820557+0j),(0.318643+2.2204460492503132e-17j)
4,1.585,(-8.770714806669012+0j),-8.680723141816761,(0.36517961761545925+0j),(0.29548100000000005+0j)
5,1.778,(-9.631647412200527+0j),-9.557479060600546,(0.31548772689375043+0j),(0.25442499999999996+0j)
6,1.995,(-10.627477548054989-2.1628894353882065e-33j),-10.580884699994261,(0.2738628525511542+0j),(0.23614479999999993-2.7755575615628915e-18j)
7,2.239,(-11.770594932678776+0j),-11.732073874929675,(0.23890993469839145+0j),(0.2104206-5.551115123125783e-18j)
8,2.512,(-13.06917251820402+0j),-13.051056197544941,(0.20947205279334036+0j),(0.19482300000000002-1.1102230246251566e-17j)
9,2.818,(-14.541301974134763+0j),-14.482255858726107,(0.18438926754542934+0j),(0.15475740000000002+0j)
10,3.162,(-16.210482768263557+0j),-16.170474825158852,(0.16276531823014145+0j),(0.13995939999999998+0j)
11,3.548,(-18.095768519461544+1.0275810627646956e-32j),-18.08092148660371,(0.14401739867569088-2.7369110631344085e-49j),(0.13102379999999997+0j)
12,3.981,(-20.221311960746544+0j),-20.158046052114333,(0.1276627192964074+0j),(0.10188680000000001+0j)
13,4.467,(-22.616391124615774+0j),-22.559701511019536,(0.1133148470802232+0j),(0.09046019999999999+4.336808689942018e-20j)
14,5.012,(-25.310454990769486+0j),-25.26016626256829,(0.10068864488312193+0j),(0.0803264+0j)
15,5.623,(-28.338014443984633+0j),-28.29299742232809,(0.08954519228811013+0j),(0.07155139999999999-1.3877787807814458e-18j)
16,6.31,(-31.74858202914698+0j),-31.70875336247492,(0.07966062364192308+0j),(0.06348159999999999+0j)
17,7.079,(-35.571908014519366+0j),-35.536377460844655,(0.07091669545734458+0j),(0.056116800000000015+0j)
18,7.943,(-39.872596072237194+0j),-39.840905099339565,(0.06314209155393409+0j),(0.050431+0j)
19,8.913,(-44.70539839386401+0j),-44.677221216501806,(0.05622956267699711+0j),(0.0449998-2.168404344971009e-20j)
20,10.0,(-50.12510556199569+0j),-50.10002805178349,(0.05008993524967747+0j),(0.03976399999999999-1.3877787807814458e-18j)
