,gs,Exact Energies,Estimate Energies,Exact Correlations,Estimate Corr
0,0.631,(-5.533729542213835+0j),-5.507857585055456,(0.8762773758859539+0j),(0.8945896000000002+0j)
1,0.661,(-5.5902120110936115+0j),-5.558442981570591,(0.861613218999957+0j),(0.8840805999999999-5.551115123125783e-18j)
2,0.692,(-5.652192867694909+1.1238162049707002e-32j),-5.6131220596078855,(0.8454128667721005-7.006492321624086e-47j),(0.8721216000000003+0j)
3,0.724,(-5.72010038782274+1.4904832542763125e-32j),-5.672668554896832,(0.8276206551536263+0j),(0.8576052+1.3877787807814458e-18j)
4,0.759,(-5.799006937544002+0j),-5.742131042662547,(0.8070095729138167+0j),(0.8420336000000005+0j)
5,0.794,(-5.882791198806039+2.2041125022471986e-76j),-5.8145913712400095,(0.7853357638116711-4.909093465297727e-92j),(0.8257598+0j)
6,0.832,(-5.979278998571736+0j),-5.897590264878522,(0.760811905924107+0j),(0.8060048000000001+0j)
7,0.871,(-6.084226131883423+0j),-5.987727708017721,(0.7348452775333781+0j),(0.7862568+0j)
8,0.912,(-6.200887425367334+0j),-6.0879815476752315,(0.7070232433299655+0j),(0.7612824+0j)
9,0.955,(-6.3299832684021045+0j),-6.201117819245866,(0.67767318719542+0j),(0.7361224-2.2204460492503132e-17j)
10,1.0,(-6.472135954999599+2.245673160700876e-63j),-6.3219748571364605,(0.6472135954999588+0j),(0.7056002000000002+1.3877787807814458e-18j)
11,1.047,(-6.627846730717725+0j),-6.459348907954917,(0.6161238774107591+0j),(0.6732388+0j)
12,1.096,(-6.797482462217747+0j),-6.608993616051627,(0.5849046157897096+0j),(0.6337335999999999+0j)
13,1.148,(-6.984946171606956+0j),-6.780189585482017,(0.553448819485844+0j),(0.5865116000000002+0j)
14,1.202,(-7.18692603843335+0j),-6.969803430253156,(0.5228472660990876+0j),(0.5304622+0j)
15,1.259,(-7.407306438245748+0j),-7.182274319953613,(0.4929476061609741+0j),(0.4679689999999999+4.4408920985006264e-17j)
16,1.318,(-7.642250033219205+0j),-7.4389447453020665,(0.46459247867619696+0j),(0.34847779999999995+0j)
17,1.38,(-7.895662513542071+0j),-7.710095709033464,(0.4375198536305021+0j),(0.31940280000000004+1.3877787807814458e-18j)
18,1.445,(-8.167542264731503+0j),-8.093420514795385,(0.4119192231355035+0j),(0.359731+0j)
19,1.514,(-8.462119164151355-1.9518449306795447e-31j),-8.359736514556243,(0.387560414069928-8.758115402030107e-48j),(0.30793079999999995+3.4694469519536144e-19j)
20,1.585,(-8.770714806669012+0j),-8.680723141816761,(0.36517961761545925+0j),(0.29548100000000005+0j)
