,gs,Exact Energies,Estimate Energies,Exact Correlations,Estimate Corr
0,0.01,(-5.00012500080861+0j),-4.999999999691576,(0.9999749995093569+0j),(1+0j)
1,100.0,(-500.01250008086106+0j),-4.969220851487842,(0.0050000652365750275+0j),(0.9935290000000002+0j)
