,gs,Exact Energies,Estimate Energies,Exact Correlations,Estimate Corr
0,0.01,(-4.00010000374991-6.90906106218765e-77j),-4.000099999999984,(0.9999749971876171+0j),(1+0j)
1,0.016,(-4.00025602457443+0j),-4.000255999999739,(0.9999359815699671+0j),(1+0j)
2,0.025,(-4.000625146461468+0j),-4.000625006102259,(0.9998436401653606+0j),(1+0j)
3,0.04,(-4.001600959615221+0j),-4.00160003997922,(0.9995992804813651+0j),(1+0j)
4,0.063,(-4.003974901469268+0j),-4.003969245819986,(0.9990033268583449+0j),(1+0j)
5,0.1,(-4.010037405062515+0j),-4.010003125673048,(0.9974719942636094+0j),(0.997999+0j)
6,0.158,(-4.025196196078539+0j),-4.024983904979144,(0.9935856278841786+0j),(0.994017+0j)
7,0.251,(-4.064464144414388+0j),-4.063131755172138,(0.9831659250865401+0j),(0.9841319999999999+0j)
8,0.398,(-4.167370572223868-2.538371702423504e-80j),-4.1592868247271495,(0.9539278166160798+0j),(0.958817+0j)
9,0.631,(-4.449280686398055+0j),-4.40460628886002,(0.8671355276269685+0j),(0.895233+0j)
10,1.0,(-5.226251859505508+5.963496545955529e-33j),-5.190195159439969,(0.6532814824381885+0j),(0.639534+0j)
11,1.585,(-7.0519000803715794+0j),-7.044620879916193,(0.38849986746930565+0j),(0.37884+0j)
12,2.512,(-10.468632822385613+0j),-10.462381828115648,(0.22094990395564504+0j),(0.21465800000000004+0j)
13,3.981,(-16.18103573053175-8.461897844692316e-32j),-16.171506704001473,(0.13138501033627997+0j),(0.12324899999999996+0j)
14,6.31,(-25.39996153611172+0j),-25.36030614252817,(0.08071725222115322+0j),(0.060719999999999955+0j)
15,10.0,(-40.100374050625234+2.9222494535794175e-31j),-40.077713124289204,(0.05037357002019021+0j),(0.038483+0j)
16,15.849,(-63.459189563741944+0j),-63.41177779047358,(0.03164178467646831+0j),(0.008000000000000007+0j)
17,25.119,(-100.51583415313381+0j),-100.48595360899962,(0.019928897422349635+0j),(0.004990000000000008+0j)
18,39.811,(-159.26912462807525+9.811409411701281e-64j),-159.25027990104832,(0.012565284710227387+0j),(0.004000000000000017+0j)
19,63.096,(-252.3998503580105-6.051396401329005e-65j),-252.38796216429643,(0.007925925352983407+0j),(0.0019920000000000077+0j)
20,100.0,(-400.01000037499017+0j),-400.0025000151922,(0.00500037498593503+0j),(0.0009940000000000088+0j)
