,gs,Exact Energies,Estimate Energies,Exact Correlations,Estimate Corr
0,0.01,(-6.000150000937784+0j),-5.999999999629891,(0.9999749995310255+0j),(1+0j)
1,100.0,(-600.0150000937779+2.168901961847326e-68j),-5.963065021785409,(0.0050000625269519886+0j),(0.993063+0j)
