,gs,Exact Energies,Estimate Energies,Exact Correlations,Estimate Corr
0,0.631,(-7.723472097705137+0j),-7.709680865467837,(0.8857821270301641+0j),(0.8948762857142857+0j)
1,0.661,(-7.798074009075139-1.5921801589682085e-30j),-7.7806750742735495,(0.8721967710797682+0j),(0.8826625714285713-3.96508223080413e-18j)
2,0.692,(-7.879897044870713-4.147992923091897e-31j),-7.859801195645535,(0.8568902964594173-1.0009274745177264e-46j),(0.871413+0j)
3,0.724,(-7.969615873922458-1.6750360076224813e-31j),-7.943461105477343,(0.839670705153285+0j),(0.8583808571428571+0j)
4,0.759,(-8.074113120157723+3.220125509713811e-31j),-8.039849340040915,(0.8191438881435694+0j),(0.8412908571428573+0j)
5,0.794,(-8.18551831369814+4.884972472833682e-33j),-8.141334921678958,(0.7968678288747537+0j),(0.8265895714285711+0j)
6,0.832,(-8.314550568815637-2.569395564053931e-31j),-8.257460304188662,(0.7708289492142149+0j),(0.8068297142857142+0j)
7,0.871,(-8.45592073262871+3.0183549836834733e-31j),-8.383167684101279,(0.742377886752762+0j),(0.7865472857142857-7.93016446160826e-18j)
8,0.912,(-8.614391486218318+1.0084325349033102e-31j),-8.52267376828372,(0.711059457851165+0j),(0.7625529999999999-1.2390881971262907e-19j)
9,0.955,(-8.791335137652776+6.504916493881921e-31j),-8.677231752630687,(0.6773518089543714+0j),(0.735200142857143+0j)
10,1.0,(-8.987918414869824+2.4131874877761408e-33j),-8.848319636575802,(0.6419941724907052+0j),(0.7056098571428573+0j)
11,1.047,(-9.205015606581352+1.3489243244365366e-31j),-9.037587990828111,(0.6059055128227211+0j),(0.6702170000000001+0j)
12,1.096,(-9.443160198967183+9.668312773395642e-31j),-9.246930420472223,(0.5700496683996648-1.251159343147158e-47j),(0.6313908571428573+0j)
13,1.148,(-9.707741286550213+7.152385429569992e-32j),-9.483283624300205,(0.5346392373329661+0j),(0.5855012857142857+0j)
14,1.202,(-9.993865274803278+2.183401680106642e-31j),-9.755742307042054,(0.5011132925559324+0j),(0.5265357142857141-3.96508223080413e-18j)
15,1.259,(-10.306730359437964+2.3662451146972514e-30j),-10.053916622639985,(0.4693673957978078-6.25579671573579e-48j),(0.46525399999999995+0j)
16,1.318,(-10.640565274882153-9.691504020575002e-31j),-10.383207734689627,(0.4402277257990844+0j),(0.39980599999999994+0j)
17,1.38,(-11.000614094960653-1.3742892440594247e-30j),-10.751753274126074,(0.4132649269219797-1.876739014720737e-47j),(0.3319385714285714+0j)
18,1.445,(-11.386614386473266+0j),-11.166252095334688,(0.38848363918669726+0j),(0.2968352857142857+0j)
19,1.514,(-11.804354137040109-2.5156990170214975e-32j),-11.595131643053413,(0.36547432659221096+0j),(0.28107642857142856-3.96508223080413e-18j)
20,1.585,(-12.241377463172883-1.9863940492186485e-31j),-12.074444127076994,(0.34474501705065325+0j),(0.26229914285714284+0j)
