,gs,Exact Energies,Estimate Energies,Exact Correlations,Estimate Corr
0,100.0,(-500.01250008086106+0j),(-56.7197265625+0j),(0.0050000652365750275+0j),(0.14589843749999998+0j)
1,1.0,(-6.472135954999599+2.245673160700876e-63j),(-0.435546875+0j),(0.6472135954999588+0j),(0.021093749999999988+0j)
2,0.01,(-5.00012500080861+0j),(-0.4454296875+0j),(0.9999749995093569+0j),(0.09511718750000002+0j)
