,gs,Exact Energies,Estimate Energies,Exact Correlations,Estimate Corr
0,0.01,(-7.000175001093805+0j),-7.000174999999971,(0.9999749995312303+0j),(1.0000162857142856+0j)
1,0.016,(-7.000448007168533+0j),-7.000448000001448,(0.9999359969276209+0j),(1.0000479999999996+0j)
2,0.025,(-7.001093792732661+0j),-7.001093756101599,(0.9998437316835028+0j),(1.000108+0j)
3,0.04,(-7.00280028014901+0j),-7.0028000399666395,(0.9995998798882777+0j),(1.0003000000000002+0j)
4,0.063,(-7.006947475579549+2.4651668189286454e-32j),-7.006945995614363,(0.9990070095961338+1.6792776440318392e-39j),(0.9987689999999999+0j)
5,0.1,(-7.0175109874178645+0j),-7.017501563313598,(0.9974952736303357+0j),(0.9978800000000001+0j)
6,0.158,(-7.043756141103808+0j),-7.043696767117222,(0.9937290105386772+0j),(0.9945941428571429+0j)
7,0.251,(-7.110706675645643+5.425339480015756e-31j),-7.110314241103279,(0.9840469235667243+0j),(0.983765+0j)
8,0.398,(-7.2804002977748485-3.8553284393126437e-31j),-7.278767062766291,(0.9588595887874405-1.0249497339061519e-43j),(0.9607468571428575+0j)
9,0.631,(-7.723472097705137+0j),-7.709680865467837,(0.8857821270301641+0j),(0.8948762857142857+0j)
10,1.0,(-8.987918414869824+2.4131874877761408e-33j),-8.848319636575802,(0.6419941724907052+0j),(0.7056098571428573+0j)
11,1.585,(-12.241377463172883-1.9863940492186485e-31j),-12.074478943312974,(0.34474501705065325+0j),(0.26216285714285714+0j)
12,2.512,(-18.288685480157554-5.930559676983384e-32j),-18.18440785079865,(0.20406265681143734+0j),(0.17158199999999998+2.4781763942525814e-19j)
13,3.981,(-28.308404852904943+4.47790298815849e-31j),-28.244585094376408,(0.12666620621632735-6.25579671573579e-48j),(0.10797342857142858+1.2390881971262907e-19j)
14,6.31,(-44.44777919863705-1.6455334456266176e-30j),-44.4075296827351,(0.0794939699584202+1.5639491789339475e-48j),(0.06776700000000002+0j)
15,10.0,(-70.17510987417826-3.1972626102937102e-31j),-70.12456291672017,(0.050062960007853735+3.127898357867895e-48j),(0.03546485714285713-9.912705577010326e-19j)
16,15.849,(-111.05344457601309+0j),-110.95877779177125,(0.03156346849521882+0j),(0.004854857142857175+0j)
17,25.119,(-175.902675283136+1.2452670766505141e-30j),-175.84295360893395,(0.019909197667638497+7.819745894669738e-49j),(0.003218285714285754+1.734723475976807e-18j)
18,39.811,(-278.72095943390326-1.1442726976342566e-29j),-278.6832799187149,(0.012560333723391779+6.25579671573579e-48j),(0.0016182857142857322+4.375530196102214e-19j)
19,63.096,(-441.6997359495935-8.831985661778373e-29j),-441.6759622777869,(0.007924681451479796+4.887341184168586e-49j),(0.0018102857142857527+0j)
20,100.0,(-700.0175001093769+0j),-700.0025000113305,(0.0050000625025693425+0j),(0.001901714285714328-6.1954409856314535e-18j)
