,gs,Exact Energies,Estimate Energies,Exact Correlations,Estimate Correlations
0,0.01,(-5.00012500080861+0j),-5.000124999578574,(0.9999749995093569+0j),(1.0000049999999998+0j)
1,0.02,(-5.0005000133761195+0j),-5.000500002423304,(0.9998999917989071+0j),(1.000025+0j)
2,0.041,(-5.00210150251486+0j),-5.002101294086687,(0.9995795921300248+0j),(1.0000999999999998+0j)
3,0.084,(-5.008825037016892+0j),-5.008820778352802,(0.9982327481421298+0j),(0.9984422000000003+0j)
4,0.17,(-5.03622912681133+0j),-5.0361380930133866,(0.9927048232339266+0j),(0.9917833999999998+0j)
5,0.346,(-5.15209126013368+0j),-5.1498722412281905,(0.968357867691047+0j),(0.9696948000000001+0j)
6,0.702,(-5.6729823987137795+1.4353676559998165e-33j),-5.631423175412704,(0.8399664533458133+0j),(0.866888+6.938893903907229e-19j)
7,1.425,(-8.083265609944593+0j),-8.075949117150104,(0.41950850855260513+0j),(0.41484619999999994+0j)
8,2.894,(-14.90896556393363+0j),-14.90363458584104,(0.17910691697919268+0j),(0.17402780000000004+0j)
9,5.878,(-29.60327140699211+0j),-29.598896180252027,(0.0855996100416234+0j),(0.08254240000000006+0j)
10,11.938,(-59.79476708349747+0j),-59.78846396852518,(0.04193330791809825+0j),(0.040865800000000035-1.1102230246251566e-17j)
11,24.245,(-121.2765632970491+0j),-121.25597112320331,(0.020627987713703874+0j),(0.012575000000000003-2.7755575615628915e-18j)
12,49.239,(-246.22038708172218+0j),-246.21021660454363,(0.01015512241771114+0j),(0.006000000000000003+0j)
13,100.0,(-500.01250008086106+0j),-500.00660267665955,(0.0050000652365750275+0j),(0.0025788000000000156+2.7755575615628915e-18j)
