,gs,Exact Energies,Estimate Energies,Exact Correlations,Estimate Corr
0,0.01,(-9.00022500140631+3.944304526105059e-31j),-8.999999999444835,(0.9999749995312306+0j),(1+0j)
1,100.0,(-900.0225001406278+0j),-8.944597532678111,(0.005000062502343857+0j),(0.9936860000000001+0j)
