,gs,Exact Energies,Estimate Energies,Exact Correlations,Estimate Corr
0,1.0,(-11.517540966287315+1.9281243862871327e-30j),-11.38103512940526,(0.6398633870159615+0j),(0.7029980000000003+0j)
1,1.259,(-13.22411609954904+2.7386281569495955e-30j),-12.943238252743047,(0.4569025719359347+0j),(0.44685400000000014+0j)
2,1.585,(-15.728060959611451+1.0255191793788909e-29j),-15.526683098359648,(0.33788372791686+0j),(0.2782928888888888+0j)
3,1.995,(-19.102460990668188+6.209257439352239e-32j),-18.959914187626097,(0.26002670558983726+0j),(0.2229025555555555+7.709882115452476e-19j)
4,2.512,(-23.513062572718518+4.785121145119837e-31j),-23.404927979005553,(0.20335649953651158-4.8656196677945034e-48j),(0.17693511111111107+0j)
5,3.162,(-29.174157668313693-4.5852503081348204e-30j),-29.089620868392515,(0.16020157933587736+0j),(0.13998566666666665+0j)
6,3.981,(-36.396452585482606-1.0541967300601187e-30j),-36.32558598541321,(0.12661444570223163-1.9462478671178014e-47j),(0.11007999999999997-1.5419764230904951e-18j)
7,5.012,(-45.55805130155915+2.9212756257018495e-30j),-45.405627940799214,(0.10026504285762759+0j),(0.0659147777777777+0j)
8,6.31,(-57.14714021345115-9.460127808708072e-30j),-57.00614540404291,(0.07949052041709447+2.4328098338972517e-48j),(0.04870199999999997-2.3129646346357427e-18j)
9,7.943,(-71.7705500314121-4.757120585632579e-30j),-71.6646527776235,(0.06307398507593223-9.123036877114694e-49j),(0.037881222222222205+0j)
10,10.0,(-90.22514097989776+0j),-90.14055391394456,(0.05006273755681003+0j),(0.030117666666666654+0j)
11,12.589,(-113.47979805597443-3.091854721552897e-31j),-113.32086644066139,(0.03974861421752497+0j),(0.005006222222222182+0j)
12,15.849,(-142.7830001509389-9.37060708960934e-31j),-142.65677778344576,(0.031563454340926125+0j),(0.00253155555555551+0j)
13,19.953,(-179.68978271151502+0j),-179.58953140938112,(0.025066763654125676+0j),(0.002531555555555493+0j)
14,25.119,(-226.16058250573647-2.3680444130616361e-29j),-226.08095358353592,(0.019909196771575353+2.4328098338972517e-48j),(0.002531555555555493+0j)
15,31.623,(-284.6781551926821+7.161449373332345e-30j),-284.6149059719483,(0.015813253725838753+6.082024584743129e-49j),(0.002531555555555493+0j)
16,39.811,(-358.35551927208866-4.801881742169097e-28j),-358.30527982318387,(0.012560333666779751-6.08202458474313e-48j),(-1.0765758654921834e-16+0j)
17,50.119,(-451.1158942714094+1.035329380108592e-29j),-451.075988252235,(0.009976753030567583+0j),(-1.0765758654921834e-16+0j)
18,63.096,(-567.8996605066177+1.1715903993469168e-28j),-567.8679622704295,(0.007924681447905813+0j),(-1.0765758654921834e-16+0j)
19,79.433,(-714.9253260394114+1.6748244690879393e-29j),-714.9001472553775,(0.0062947377806099+0j),(-1.0765758654921834e-16+0j)
20,100.0,(-900.0225001406278+0j),-900.002500015622,(0.005000062502343857+0j),(-1.0765758654921834e-16+0j)
