,gs,Exact Energies,Estimate Energies,Exact Correlations,Estimate Corr
0,0.01,(-5.00012500080861+0j),-5.000124999999979,(0.9999749995093569+0j),(1.0000090000000004+0j)
1,0.016,(-5.000320005407018+0j),-5.0003199999977666,(0.9999359966983296+0j),(1.0000159999999996+0j)
2,0.025,(-5.00078128319202+0j),-5.000781256101942,(0.9998437295492043+0j),(1.0000359999999997+0j)
3,0.04,(-5.002000228063251+0j),-5.002000039974473,(0.9995998575401001+0j),(1.0000999999999998+0j)
4,0.063,(-5.0049627528881935+0j),-5.0049614957491695,(0.9990067937459879+0j),(0.9982570000000003+0j)
5,0.1,(-5.012510556199557+0j),-5.012501563570689,(0.9974931177149436+0j),(0.9966270000000004+0j)
6,0.158,(-5.031280664514634+0j),-5.031214767423403,(0.9937082460318113+0j),(0.99353+0j)
7,0.251,(-5.079332151203975+0j),-5.078813742975562,(0.9838487228053747+0j),(0.9839218+0j)
8,0.398,(-5.202602682749281+0j),-5.199325090880667,(0.957171668829507+0j),(0.9591511999999999+0j)
9,0.631,(-5.533729542213835+0j),-5.507857585055456,(0.8762773758859539+0j),(0.8945896000000002+0j)
10,1.0,(-6.472135954999599+2.245673160700876e-63j),-6.3219748571364605,(0.6472135954999588+0j),(0.7056002000000002+1.3877787807814458e-18j)
11,1.585,(-8.770714806669012+0j),-8.680723141816761,(0.36517961761545925+0j),(0.29548100000000005+0j)
12,2.512,(-13.06917251820402+0j),-13.045292786967833,(0.20947205279334036+0j),(0.18969360000000002+0j)
13,3.981,(-20.221311960746544+0j),-20.158046052114333,(0.1276627192964074+0j),(0.10188680000000001+0j)
14,6.31,(-31.74858202914698+0j),-31.70872042375789,(0.07966062364192308+0j),(0.06367479999999999-3.4694469519536144e-19j)
15,10.0,(-50.12510556199569+0j),-50.10002805178349,(0.05008993524967747+0j),(0.03976399999999999-1.3877787807814458e-18j)
16,15.849,(-79.3238932998581+0j),-79.26077779244066,(0.031567778840055086+0j),(0.006796799999999992+0j)
17,25.119,(-125.64476874516238-1.3811942604030967e-30j),-125.60495360908979,(0.019909883027684556+0j),(0.003388799999999999+3.4694469519536144e-19j)
18,39.811,(-199.086399704433+0j),-199.06127991897984,(0.012560442485018848+0j),(0.002265599999999966+0j)
19,63.096,(-315.4998114098146+0j),-315.4839622778106,(0.00792469869807924+0j),(0.002252800000000023+1.3877787807814458e-18j)
20,100.0,(-500.01250008086106+0j),-500.002500013636,(0.0050000652365750275+0j),(6.661338147750939e-18-7.28583859910259e-18j)
