,gs,Exact Energies,Estimate Energies,Exact Correlations,Estimate Corr
0,1.259,(-10.306730359437964+2.3662451146972514e-30j),-10.053916622639985,(0.4693673957978078-6.25579671573579e-48j),(0.46525399999999995+0j)
1,1.318,(-10.640565274882153-9.691504020575002e-31j),-10.383207734689627,(0.4402277257990844+0j),(0.39980599999999994+0j)
2,1.38,(-11.000614094960653-1.3742892440594247e-30j),-10.751753274126074,(0.4132649269219797-1.876739014720737e-47j),(0.3319385714285714+0j)
3,1.445,(-11.386614386473266+0j),-11.166252095334688,(0.38848363918669726+0j),(0.2968352857142857+0j)
4,1.514,(-11.804354137040109-2.5156990170214975e-32j),-11.595131643053413,(0.36547432659221096+0j),(0.28107642857142856-3.96508223080413e-18j)
5,1.585,(-12.241377463172883-1.9863940492186485e-31j),-12.074444127076994,(0.34474501705065325+0j),(0.26229914285714284+0j)
6,1.66,(-12.709635731115748+3.2015758481284697e-31j),-12.566440443705366,(0.32552193074746416+0j),(0.24924771428571424+0j)
7,1.738,(-13.202676706350864+6.840591625708583e-31j),-13.084216826803809,(0.30792306432016453-3.127898357867895e-48j),(0.24991342857142862+0j)
8,1.82,(-13.72660414789821-2.088889163994347e-31j),-13.597438624626774,(0.2915798552030281+0j),(0.22687957142857143+9.912705577010326e-19j)
9,1.905,(-14.274823903255845-1.569620220473007e-30j),-14.160446380086656,(0.2765590084209792+0j),(0.22381228571428574+1.982541115402065e-18j)
10,1.995,(-14.860113139445435-1.2223322682789638e-30j),-14.72107847272928,(0.2624119512391472+3.127898357867895e-48j),(0.21560685714285713+0j)
11,2.089,(-15.475919605179822+4.940585645179689e-32j),-15.351101283652998,(0.24923472344759703+1.251159343147158e-47j),(0.20107657142857147+0j)
12,2.188,(-16.128724498905797-1.8898494774735905e-30j),-16.007571666054677,(0.2368249007224837+1.5639491789339475e-48j),(0.19617028571428574+0j)
13,2.291,(-16.81185596162492+0j),-16.695453204726306,(0.22524970458569085+0j),(0.18826028571428569+4.956352788505163e-19j)
14,2.399,(-17.53185793322385+2.1329879808136965e-31j),-17.423635647890855,(0.21434099723376915+0j),(0.17777142857142855+0j)
15,2.512,(-18.288685480157554-5.930559676983384e-32j),-18.184410100852592,(0.20406265681143734+0j),(0.1716035714285714+4.956352788505163e-19j)
16,2.63,(-19.082282311029147-1.9560962974166782e-31j),-18.983279746175803,(0.19437907439756108+0j),(0.16353642857142855+0j)
17,2.754,(-19.91934619618459+0j),-19.825493887634558,(0.18518517039724172+0j),(0.15678514285714285+0j)
18,2.884,(-20.7998719868699+0j),-20.710614122029707,(0.17646773039581715+0j),(0.1495821428571428+0j)
19,3.02,(-21.72383869905454+0j),-21.638817050593442,(0.168210791314646+0j),(0.14276400000000003-9.912705577010326e-19j)
20,3.162,(-22.69121321044322+0j),-22.61017230952428,(0.1603965271814891+0j),(0.1364098571428572+0j)
