,gs,Exact Energies,Estimate Energies,Exact Correlations,Estimate Corr
0,0.01,(-3.0000753754569187+0j),-3.0000749999999887,(0.999974749547061+0j),(0.9999910000000001+0j)
1,0.016,(-3.0001935389472494+0j),-3.000191999999803,(0.9999349730949636+0j),(0.999984+0j)
2,0.025,(-3.0004746265138422+0j),-3.000468762207234,(0.9998398270108622+0j),(0.9999639999999999+0j)
3,0.04,(-3.0012241075410024+0j),-3.00120008000403,(0.9995838967658696+0j),(0.9998999999999998+0j)
4,0.063,(-3.0030711327165327+0j),-3.0029772423434014,(0.998944666627685+0j),(0.9997440000000002+0j)
5,0.1,(-3.0078784028338874+0j),-3.0075093688514,(0.9972470632572149+0j),(0.9979983333333333+0j)
6,0.158,(-3.020218032347445+0j),-3.018781328275675,(0.9927620246407767+0j),(0.9940186666666666+0j)
7,0.251,(-3.0532219619125716+0j),-3.0476213525308546,(0.980312465006219+0j),(0.9841366666666668+0j)
8,0.398,(-3.142022935629002+0j),-3.1211306091855398,(0.9457106009607303+0j),(0.9588536666666667+0j)
9,0.631,(-3.382754549016498+0j),-3.313057746811906,(0.854334787092407+0j),(0.8862296666666666+0j)
10,1.0,(-4.000000000000001+0j),-3.835975917992997,(0.6666666666666666+0j),(0.670266+0j)
11,1.585,(-5.361490590655762+0j),-5.361490588099685,(0.4329795081115891+0j),(0.434036+0j)
12,2.512,(-7.892933233912604+0j),-7.782132547173434,(0.25541994933307344+0j),(0.1828106666666666+0j)
13,3.981,(-12.155220793925983+0j),-12.086213960859999,(0.1492483010208624+0j),(0.10189266666666671+0j)
14,6.31,(-19.058378611536163+0j),-19.05837861041507,(0.08876057752242462+0j),(0.08758999999999996+9.25185853854297e-18j)
15,10.0,(-30.078784028338912+0j),-30.078784017623022,(0.053790710207488934+0j),(0.05418399999999997-4.625929269271485e-18j)
16,15.849,(-47.59582429129874+0j),-47.57957093484435,(0.033052999364681146+0j),(0.022328666666666698+0j)
17,25.119,(-75.38745485703816+0j),-75.3773083229166,(0.020503009926815363+0j),(0.014686000000000013+0j)
18,39.811,(-119.45207631511656+0j),-119.4457188203483,(0.012796859082561904+0j),(0.008039333333333324-5.782411586589357e-19j)
19,63.096,(-189.29998102296918+0j),-189.2959873242232,(0.008018863826214084+0j),(0.005660000000000035+2.3129646346357427e-18j)
20,100.0,(-300.00753754569195+0j),-300.0050250267611,(0.005037560524562963+0j),(0.003881999999999986+4.625929269271485e-18j)
