,gs,Exact Energies,Estimate Energies,Exact Correlations,Estimate Corr
0,0.01,(-3.0000753754569187+0j),-2.9999999998149454,(0.999974749547061+0j),(1+0j)
1,100.0,(-300.00753754569195+0j),-2.981532510892706,(0.005037560524562963+0j),(0.9944789999999999+0j)
