,gs,Exact Energies,Estimate Energies,Exact Correlations,Estimate Correlations
0,0.01,(-6.000150000937784+0j),-6.000149999583806,(0.9999749995310255+0j),(1.0000096666666667+0j)
1,0.025,(-6.000937536686885+0j),-6.000937505952104,(0.9998437316346319+0j),(1.0000720000000003+0j)
2,0.063,(-6.005954993670394+0j),-6.005953745185829,(0.9990069975619513+0j),(0.9985129999999995+0j)
3,0.158,(-6.037508584218975+0j),-6.037455763916111,(0.9937263329749815+0j),(0.9930646666666665+0j)
4,0.398,(-6.240971707236196+0j),-6.238005385113038,(0.9583990325727074+0j),(0.9600956666666668+0j)
5,1.0,(-7.72740661031256-1.6930744473821953e-33j),-7.582674803435696,(0.6439505508593789+0j),(0.7051246666666668+0j)
6,2.512,(-15.677597066058397+0j),-15.573574065441468,(0.20548440223466313+0j),(0.16802300000000003+0j)
7,6.31,(-38.09811778104244+2.439847191334111e-33j),-38.05754530820988,(0.07951471836526766+1.1403796096393367e-49j),(0.06564233333333336-1.1564823173178713e-18j)
8,15.849,(-95.18866701296274+2.6344032966261795e-32j),-95.17054611113653,(0.031563699866466496+0j),(0.026724333333333315+0j)
9,39.811,(-238.90367951718687+4.1748392757375184e-32j),-238.8848018804904,(0.012560336126785192+0j),(0.006419333333333334+0j)
10,100.0,(-600.0150000937779+2.168901961847326e-68j),-600.0074874403301,(0.0050000625269519886+0j),(0.0021880000000000068+2.3129646346357427e-18j)
