,gs,Exact Energies,Estimate Energies,Exact Correlations,Estimate Corr
0,0.01,(-6.000150000937784+0j),-6.000149999999977,(0.9999749995310255+0j),(1.0000096666666667+0j)
1,0.016,(-6.000384006148531+0j),-6.000383999999607,(0.9999359969242324+0j),(1.000032+0j)
2,0.025,(-6.000937536686885+0j),-6.000937506101694,(0.9998437316346319+0j),(1.0000720000000003+0j)
3,0.04,(-6.002400241103431+0j),-6.002400039970185,(0.999599879080669+0j),(1.0002000000000004+0j)
4,0.063,(-6.005954993670394+0j),-6.005953745679754,(0.9990069975619513+0j),(0.9985129999999995+0j)
5,0.1,(-6.0150096436544205+0j),-6.015001563464805,(0.99749508891418+0j),(0.9972529999999998+0j)
6,0.158,(-6.037508584218975+0j),-6.037455767251244,(0.9937263329749815+0j),(0.9930646666666665+0j)
7,0.251,(-6.094939604883358+0j),-6.094563991074287,(0.9840091728564617+0j),(0.9838323333333332+0j)
8,0.398,(-6.240971707236196+0j),-6.239176305362074,(0.9583990325727074+0j),(0.9602926666666667+2.3129646346357427e-18j)
9,0.631,(-6.626476535100863+0j),-6.608962051018039,(0.8821453613575176+0j),(0.8938336666666664+0j)
10,1.0,(-7.72740661031256-1.6930744473821953e-33j),-7.582011230104226,(0.6439505508593789+0j),(0.7068733333333335+0j)
11,1.585,(-10.502680013389993+0j),-10.375159536900808,(0.3521852028180275+0j),(0.26780766666666667+0j)
12,2.512,(-15.677597066058397+0j),-15.573926163005419,(0.20548440223466313+0j),(0.166713+0j)
13,3.981,(-24.264539619062557+1.7123316255355675e-31j),-24.20017547009543,(0.12684924256725028+0j),(0.10415699999999997+0j)
14,6.31,(-38.09811778104244+2.439847191334111e-33j),-38.05809897506263,(0.07951471836526766+1.1403796096393367e-49j),(0.06621633333333335+0j)
15,10.0,(-60.150096436543855-4.716216185432521e-31j),-60.08834655616837,(0.050065183615538036+0j),(0.02911033333333333+0j)
16,15.849,(-95.18866701296274+2.6344032966261795e-32j),-95.10977779178702,(0.031563699866466496+0j),(0.005333333333333341+0j)
17,25.119,(-150.77372169508405+1.7259548577642458e-30j),-150.72395360900902,(0.019909221358609876+0j),(0.0027359999999999962-2.8912057932946783e-19j)
18,39.811,(-238.90367951718687+4.1748392757375184e-32j),-238.87227991864066,(0.012560336126785192+0j),(0.002666666666666663+0j)
19,63.096,(-378.59977367132205+2.2358746143489355e-30j),-378.5799622334227,(0.007924681693961764+0j),(0.0013279999999999963-5.782411586589357e-19j)
20,100.0,(-600.0150000937779+2.168901961847326e-68j),-600.0025000151655,(0.0050000625269519886+0j),(-1.943549488014895e-18+0j)
