,gs,Exact Energies,Estimate Energies,Exact Correlations,Estimate Corr
0,0.01,(-7.000175001093805+0j),-6.999999999568206,(0.9999749995312303+0j),(1+0j)
1,100.0,(-700.0175001093769+0j),-6.9569091920829775,(0.0050000625025693425+0j),(0.9945920000000001+0j)
