,gs,Exact Energies,Estimate Energies,Exact Correlations,Estimate Corr
0,1.0,(-8.987918414869824+2.4131874877761408e-33j),-8.848319905894863,(0.6419941724907052+0j),(0.7055980000000002+0j)
1,1.259,(-10.306730359437964+2.3662451146972514e-30j),-10.05392689627565,(0.4693673957978078-6.25579671573579e-48j),(0.46487742857142855+9.912705577010326e-19j)
2,1.585,(-12.241377463172883-1.9863940492186485e-31j),-12.04511678208648,(0.34474501705065325+0j),(0.26994500000000005+0j)
3,1.995,(-14.860113139445435-1.2223322682789638e-30j),-14.721078754870632,(0.2624119512391472+3.127898357867895e-48j),(0.21560685714285713+0j)
4,2.512,(-18.288685480157554-5.930559676983384e-32j),-18.184385526452385,(0.20406265681143734+0j),(0.17178400000000002+0j)
5,3.162,(-22.69121321044322+0j),-22.609970561060095,(0.1603965271814891+0j),(0.1362257142857143+1.2390881971262907e-19j)
6,3.981,(-28.308404852904943+4.47790298815849e-31j),-28.244340548796778,(0.12666620621632735-6.25579671573579e-48j),(0.10776914285714287-1.982541115402065e-18j)
7,5.012,(-35.434053523350826+0j),-35.38323256595594,(0.10027849221906251+0j),(0.08548914285714289+1.2390881971262907e-19j)
8,6.31,(-44.44777919863705-1.6455334456266176e-30j),-44.393950402845704,(0.0794939699584202+1.5639491789339475e-48j),(0.06328114285714287-1.982541115402065e-18j)
9,7.943,(-55.82153979620739+0j),-55.78332577271256,(0.06307486358229777+0j),(0.052417428571428594-3.097720492815727e-20j)
10,10.0,(-70.17510987417826-3.1972626102937102e-31j),-70.13517313885606,(0.050062960007853735+3.127898357867895e-48j),(0.03839057142857144+0j)
11,12.589,(-88.26206521093188+0j),-88.14286643504201,(0.03974867039166601+0j),(0.004854857142857175+0j)
12,15.849,(-111.05344457601309+0j),-110.95877778913533,(0.03156346849521882+0j),(0.004854857142857175+0j)
13,19.953,(-139.75871989029946+1.5596549018490399e-30j),-139.68353140784208,(0.02506676721651738+0j),(0.004854857142857176+0j)
14,25.119,(-175.902675283136+1.2452670766505141e-30j),-175.8429535794272,(0.019909197667638497+7.819745894669738e-49j),(0.0016182857142857442+0j)
15,31.623,(-221.41634292786728-2.5522718223932976e-31j),-221.36890609971894,(0.01581325395110127-2.7369110631344083e-48j),(0.0016182857142857322+0j)
16,39.811,(-278.72095943390326-1.1442726976342566e-29j),-278.6832796815986,(0.012560333723391779+6.25579671573579e-48j),(0.0016182857142857322+0j)
17,50.119,(-350.86791776666627+0j),-350.8379882248892,(0.009976753044792234+0j),(0.0016182857142857322+0j)
18,63.096,(-441.6997359495935-8.831985661778373e-29j),-441.67596227845894,(0.007924681451479796+4.887341184168586e-49j),(0.0016182857142857322+0j)
19,79.433,(-556.0530313639856+6.268744234791245e-30j),-556.0341473251458,(0.006294737781507664-3.909872947334869e-49j),(0.0016182857142857322+0j)
20,100.0,(-700.0175001093769+0j),-700.002500015621,(0.0050000625025693425+0j),(0.0016182857142857322+0j)
