,gs,Exact Energies,Estimate Energies,Exact Correlations,Estimate Corr
0,0.01,(-1.0200746254803577+0j),-0.980833469915177,(-0.33330858284914333+0j),(-0.3272363333333333+0j)
1,0.016,(-1.0321904671930184+0j),-0.9989076944381541,(-0.3332703541005948+0j),(-0.33314099999999996+0j)
2,0.025,(-1.0504629100529086+0j),-0.9978945838211406,(-0.3331809697919385+0j),(-0.33284566666666665+0j)
3,0.04,(-1.081176131547692+0j),-1.0114377738081521,(-0.3329491980858441+0j),(-0.3312946666666666-9.25185853854297e-18j)
4,0.063,(-1.1288838302286015+0j),-0.9586100011652812,(-0.3324027130062832+0j),(-0.33244933333333326+0j)
5,0.1,(-1.2071307505705466+0j),-1.151122720454787,(-0.3310772636934159+0j),(-0.330399+0j)
6,0.158,(-1.3332829700983742+0j),-1.1671094473736607,(-0.32803656035070794+0j),(-0.32418933333333333+0j)
7,0.251,(-1.543597653318174+0j),-1.4654669357794319,(-0.3212371118970749+0j),(-0.31485199999999997+0j)
8,0.398,(-1.8931184340628004+0j),-1.699494345718058,(-0.307384415708967+0j),(-0.28844900000000007+0j)
9,0.631,(-2.4799724463392074+0j),-2.287892745404307,(-0.2823272365868167+0j),(-0.2625953333333333+2.3129646346357427e-18j)
10,1.0,(-3.464101615137756+0j),-3.256655807354664,(-0.2440169358562923+0j),(-0.20757733333333334+0j)
11,1.585,(-5.100406958403635+0j),-4.699105599383869,(-0.1959655808103769+0j),(-0.116174+9.25185853854297e-18j)
12,2.512,(-7.780059986949706+0j),-7.376806988099039,(-0.1465599679852161+0j),(-0.15961+2.3129646346357427e-18j)
13,3.981,(-12.108838955634573+0j),-11.993833730348857,(-0.10349879667176193+0j),(-0.06385100000000003+0j)
14,6.31,(-19.039690455359857+0j),-18.963274173155867,(-0.07017175791490106+0j),(-0.067129+0j)
15,10.0,(-30.07130750570549+0j),-29.288891705696653,(-0.0463298649676659+0j),(-0.020625333333333343+9.25185853854297e-18j)
16,15.849,(-47.59284223025759+0j),-47.57051633530815,(-0.030073418069149444+0j),(-0.018171666666666666+0j)
17,25.119,(-75.38626678885865+0j),-75.36381679436742,(-0.019315334437314098+0j),(-0.00453133333333332+0j)
18,39.811,(-119.45160319714898+0j),-119.38992012629204,(-0.01232380333086222+0j),(-0.0025190000000000026-9.25185853854297e-18j)
19,63.096,(-189.29979264786107+0j),-189.26154373486398,(-0.007830498577484291+0j),(-0.00378200000000002+0j)
20,100.0,(-300.00746254803505+0j),-299.916936026461,(-0.004962564430908617+0j),(-0.0035170000000000028-2.3129646346357427e-18j)
