,gs,Exact Energies,Estimate Energies,Exact Correlations,Estimate Corr
0,1.0,(-8.987918414869824+2.4131874877761408e-33j),-8.848319636575802,(0.6419941724907052+0j),(0.7056098571428573+0j)
1,1.259,(-10.306730359437964+2.3662451146972514e-30j),-10.053916622639985,(0.4693673957978078-6.25579671573579e-48j),(0.46525399999999995+0j)
2,1.585,(-12.241377463172883-1.9863940492186485e-31j),-12.074444127076994,(0.34474501705065325+0j),(0.26229914285714284+0j)
3,1.995,(-14.860113139445435-1.2223322682789638e-30j),-14.72107847272928,(0.2624119512391472+3.127898357867895e-48j),(0.21560685714285713+0j)
4,2.512,(-18.288685480157554-5.930559676983384e-32j),-18.184410100852592,(0.20406265681143734+0j),(0.1716035714285714+4.956352788505163e-19j)
5,3.162,(-22.69121321044322+0j),-22.61017230952428,(0.1603965271814891+0j),(0.1364098571428572+0j)
6,3.981,(-28.308404852904943+4.47790298815849e-31j),-28.244585094376408,(0.12666620621632735-6.25579671573579e-48j),(0.10797342857142858+1.2390881971262907e-19j)
7,5.012,(-35.434053523350826+0j),-35.383277694567866,(0.10027849221906251+0j),(0.08556528571428575+0j)
8,6.31,(-44.44777919863705-1.6455334456266176e-30j),-44.40757019741107,(0.0794939699584202+1.5639491789339475e-48j),(0.06814271428571432-4.956352788505163e-19j)
9,7.943,(-55.82153979620739+0j),-55.76109976415521,(0.06307486358229777+0j),(0.04557285714285712+2.4781763942525814e-19j)
10,10.0,(-70.17510987417826-3.1972626102937102e-31j),-70.12456291672017,(0.050062960007853735+3.127898357867895e-48j),(0.03546485714285713-9.912705577010326e-19j)
11,12.589,(-88.26206521093188+0j),-88.14286643874655,(0.03974867039166601+0j),(0.004854857142857175+3.562378566738086e-19j)
12,15.849,(-111.05344457601309+0j),-110.95877779177125,(0.03156346849521882+0j),(0.004854857142857175+0j)
13,19.953,(-139.75871989029946+1.5596549018490399e-30j),-139.68353129370587,(0.02506676721651738+0j),(0.003218285714285754+1.0842021724855044e-19j)
14,25.119,(-175.902675283136+1.2452670766505141e-30j),-175.84295360883263,(0.019909197667638497+7.819745894669738e-49j),(0.003218285714285754+1.734723475976807e-18j)
15,31.623,(-221.41634292786728-2.5522718223932976e-31j),-221.36890611410058,(0.01581325395110127-2.7369110631344083e-48j),(0.0016182857142857322+8.751060392204428e-19j)
16,39.811,(-278.72095943390326-1.1442726976342566e-29j),-278.6832799187149,(0.012560333723391779+6.25579671573579e-48j),(0.0016182857142857322+4.375530196102214e-19j)
17,50.119,(-350.86791776666627+0j),-350.8379880378819,(0.009976753044792234+0j),(0.0016000000000000385+0j)
18,63.096,(-441.6997359495935-8.831985661778373e-29j),-441.67596224453007,(0.007924681451479796+4.887341184168586e-49j),(0.0018102857142857527+0j)
19,79.433,(-556.0530313639856+6.268744234791245e-30j),-556.0341473372338,(0.006294737781507664-3.909872947334869e-49j),(0.0016182857142857322+8.751060392204428e-19j)
20,100.0,(-700.0175001093769+0j),-700.0025000113305,(0.0050000625025693425+0j),(0.001901714285714328-6.1954409856314535e-18j)
