,gs,Exact Energies,Estimate Energies,Exact Correlations,Estimate Corr
0,0.01,(-1.0001999800039987+0j),-1.0001999784320048,(0.4999000299900036+0j),(0.49980399999999997+0j)
1,0.016,(-1.0005118689950652+0j),-1.0005118685195735,(0.4997441964403781+0j),(0.49972799999999995+0j)
2,0.025,(-1.0012492197250393+0j),-1.0012492194905789,(0.4993761694389223+0j),(0.49952499999999994+0j)
3,0.04,(-1.0031948963187551+0j),-1.0031948958677523,(0.4984076392680624+0j),(0.4983584999999999+0j)
4,0.063,(-1.0079067417177046+0j),-1.0079067287989159,(0.4960776422111088+0j),(0.4957944999999999+0j)
5,0.1,(-1.0198039027185568+0j),-1.0198039023052958,(0.49029033784545994+0j),(0.49071599999999993+0j)
6,0.158,(-1.0487401966168737+0j),-1.048740196201304,(0.47676250191701197+0j),(0.47693699999999994+0j)
7,0.251,(-1.1189298458795354+0j),-1.1189298458028456,(0.44685553955080626+0j),(0.4467749999999999+0j)
8,0.398,(-1.2781298838537494+0j),-1.2781298836339117,(0.3911965492054895+0j),(0.39193500000000003+0j)
9,0.631,(-1.6101689352362998+0j),-1.6101689349452781,(0.31052642307164036+0j),(0.310905+0j)
10,1.0,(-2.2360679774997894+0j),-2.2360679734787325,(0.223606797749979+0j),(0.22341849999999996+0j)
11,1.585,(-3.3239885679707135+0j),-3.323988567152608,(0.15042169663815924+0j),(0.15017599999999998+0j)
12,2.512,(-5.122555612192021+0j),-5.122555612025071,(0.09760752988410001+0j),(0.09760800000000006+0j)
13,3.981,(-8.024552573196834+0j),-8.024552572706273,(0.062308769920714685+0j),(0.061876000000000014+0j)
14,6.31,(-12.659557654199457+0j),-12.659557654138744,(0.03949585077596601+0j),(0.03896100000000002+0j)
15,10.0,(-20.024984394500784+0j),-20.024984394473286,(0.024968808471946186+0j),(0.02498+0j)
16,15.849,(-31.713769943038947+0j),-31.713769942812746,(0.015766022169488803+0j),(0.016000000000000014+0j)
17,25.119,(-50.247951639842995+0j),-50.24795152981005,(0.009950654378586332+0j),(0.010000000000000009+0j)
18,39.811,(-79.62827942383275+0j),-79.62827942305738,(0.006279176237611261+0j),(0.005999999999999978+0j)
19,63.096,(-126.19596215410384+0j),-126.19596215197834,(0.003962091904251591+0j),(0.0040000000000000036+0j)
20,100.0,(-200.00249998437525+0j),-200.00249865747443,(0.002499968750585807+0j),(0.001999999999999974+0j)
