,gs,Exact Energies,Estimate Energies,Exact Correlations,Estimate Corr
0,0.01,(-3.0000753754569187+0j),-3.000074999812954,(0.999974749547061+0j),(0.9999910000000001+0j)
1,0.018,(-3.0002451916955204+0j),-3.000242999378764,(0.9999175373808293+0j),(0.9999750000000001+0j)
2,0.034,(-3.0008817961433287+0j),-3.0008669967942927,(0.999701118747093+0j),(0.9999189999999998+0j)
3,0.063,(-3.0030711327165327+0j),-3.0029766995053793,(0.998944666627685+0j),(0.9997440000000002+0j)
4,0.117,(-3.010873279815731+0j),-3.0102649461864877,(0.9961724718925261+0j),(0.9970999999999999+0j)
5,0.215,(-3.0384308322500218+0j),-3.0345991866420667,(0.9859492587378639+0j),(0.98688+0j)
6,0.398,(-3.142022935629002+0j),-3.115896774564142,(0.9457106009607303+0j),(0.9472389999999999+0j)
7,0.736,(-3.5312114081634003+0j),-3.295565851115411,(0.8027302315675993+0j),(0.6859519999999999+0j)
8,1.359,(-4.798574553072727+0j),-4.168914651105961,(0.5085004881124695+0j),(0.8302350000000001+1.1564823173178713e-18j)
9,2.512,(-7.892933233912604+0j),-7.379050239064871,(0.25541994933307344+0j),(0.1670249999999999+0j)
10,4.642,(-14.105135116492006+0j),-13.56185359161528,(0.12521502858110947+0j),(0.08821000000000001+0j)
11,8.577,(-25.82359090394042+0j),-25.324403843489527,(0.06345107356625745+0j),(0.040800000000000024-1.4456028966473392e-19j)
12,15.849,(-47.59582429129874+0j),-47.546788034972,(0.033052999364681146+0j),(1.9999999999999986e-06-1.1564823173178713e-18j)
13,29.286,(-87.88404843916153+0j),-86.7229035526308,(0.01751244773717031+0j),(0.027886000000000022+0j)
14,54.117,(-162.36498718857138+0j),-151.3137102471056,(0.009367657356813764+0j),(0.1353809999999999-2.3129646346357427e-18j)
15,100.0,(-300.00753754569195+0j),-182.6090012542704,(0.005037560524562963+0j),(0.632769+0j)
